…
# let's see what we have now; we'll include only the relevant columns here
performance_data |> 
  select(worker1, w1_change, worker2, w2_change, worker3, w3_change)
```

    ## # A tibble: 100 × 6
    ##    worker1 w1_change  worker2 w2_change  worker3 w3_change
    ##      <dbl>     <dbl>    <dbl>     <dbl>    <dbl>     <dbl>
    ##  1 -1.28    NA        0.639     NA       0.643      NA    
    ##  2  1.41     2.70    -0.0664    -0.705   0.366      -0.277
    ##  3  0.353   -1.06     0.0245     0.0909  0.553       0.187
    ##  4  0.360    0.00737 -0.836     -0.860   1.31        0.753
    ##  5 -0.650   -1.01    -0.00423    0.832  -0.00580    -1.31 
    ##  6  1.71     2.36    -1.16      -1.15   -0.442      -0.436
    ##  7 -0.326   -2.04    -0.297      0.861   0.468       0.910
    ##  8  0.0118   0.338   -1.08      -0.780   0.0172     -0.451
    ##  9  0.248    0.236   -0.396      0.681   1.31        1.29 
    ## 10  0.224   -0.0238   3.43       3.82    0.382      -0.929
    ## # ℹ 90 more rows
…
